Homework4
…
Use map2 from purrr to apply prop.test within each city and then map from purrr to apply tidy to this output. Use the unnest function from the tidyr package on the resulting list-column (from mapping tidy to the prop.test output list-column), with the option .drop = TRUE, to get your estimates back into a regular tidy data frame before plotting.

unsolved <- unsolved %>% 
  mutate(prop_results = map2(.x = n_unsolved, .y = n, .f = prop.test),
         prop_results = map(.x = prop_results, .f = tidy)) %>% 
  unnest(prop_results, .drop = TRUE) %>% 
  select(city_name, estimate, conf.low, conf.high)

## Warning in .f(.x[[i]], .y[[i]], ...): Chi-squared approximation may be
## incorrect

unsolved

## # A tibble: 51 x 4
##    city_name       estimate conf.low conf.high
##    <chr>              <dbl>    <dbl>     <dbl>
##  1 Albuquerque, NM    0.386    0.337     0.438
##  2 Atlanta, GA        0.383    0.353     0.415
##  3 Baltimore, MD      0.646    0.628     0.663
##  4 Baton Rouge, LA    0.462    0.414     0.511
##  5 Birmingham, AL     0.434    0.399     0.469
##  6 Boston, MA         0.505    0.465     0.545
##  7 Buffalo, NY        0.612    0.569     0.654
##  8 Charlotte, NC      0.300    0.266     0.336
##  9 Chicago, IL        0.736    0.724     0.747
## 10 Cincinnati, OH     0.445    0.408     0.483
## # ... with 41 more rows
…
